{
  "Name": "Korela",
  "Race": "Kamael",
  "Prof": "Arba",
  "Lvl": 85,
  "Sub": [
    {
      "Prof": "SBF",
      "Lvl": 78
    },
    {
      "Prof": "Bers",
      "Lvl": 78
    },
    {
      "Prof": "Jud",
      "Lvl": 85
    }
  ]
}